{
  "base": "semantic/",
  "paths": {
    "source": {
      "config": "src/theme.config",
      "definitions": "src/definitions/",
      "site": "src/site/",
      "themes": "src/themes/"
    },
    "output": {
      "packaged": "dist/",
      "uncompressed": "dist/components/",
      "compressed": "dist/components/",
      "themes": "dist/themes/"
    },
    "clean": "dist/"
  },
  "permission": false,
  "autoInstall": false,
  "rtl": false,
  "components": [
    "site",
    "reset",
    "button",
    "container",
    "divider",
    "header",
    "input",
    "segment",
    "form",
    "message",
    "menu",
    "icon",
        
    "loader",
    "grid"
  ],
  "version": "2.4.2"
}